<svg width="800" height="600" xmlns="http://www.w3.org/2000/svg">

 <g>
  <title>Layer 1</title>
  <path fill="#404040" d="m350.80002,552.74999c2,0 3.2,1.2 3.2,2.9c0,1.1 -0.7,2 -1.6,2.3c1.2,0.3 1.9,1.4 1.9,2.6c0,1.7 -1.3,2.9 -3.3,2.9l-3.7,0l0,-10.7l3.5,0zm-0.2,4.7c1.2,0 1.9,-0.7 1.9,-1.7s-0.7,-1.7 -1.9,-1.7l-1.8,0l0,3.4l1.8,0zm0.2,4.7c1.2,0 2,-0.7 2,-1.7s-0.6,-1.7 -1.9,-1.7l-2.1,0l0,3.4l2,0zm10.1,-4.5l-0.6,0c-1.2,0 -2,0.6 -2,2.2l0,3.6l-1.4,0l0,-7.2l1.4,0l0,1.3c0.5,-1.1 1.4,-1.4 2.2,-1.4l0.5,0l0,1.5l-0.1,0zm4,1.6l1.9,-0.3c0.4,-0.1 0.6,-0.3 0.6,-0.5c0,-0.7 -0.5,-1.3 -1.6,-1.3c-1,0 -1.5,0.6 -1.6,1.5l-1.4,-0.3c0.2,-1.4 1.4,-2.3 3,-2.3c2.2,0 3,1.2 3,2.6l0,3.6c0,0.6 0.1,1 0.1,1.2l-1.4,0c0,-0.2 -0.1,-0.5 -0.1,-1c-0.3,0.5 -1,1.2 -2.3,1.2c-1.5,0 -2.4,-1 -2.4,-2.2c0,-1.3 0.9,-2 2.2,-2.2l0,0zm2.5,1.1l0,-0.3l-2.2,0.3c-0.6,0.1 -1.1,0.4 -1.1,1.1c0,0.5 0.4,1 1.2,1c1.2,0 2.1,-0.6 2.1,-2.1zm5.7,3.1l-1.4,0l0,-7.2l1.4,0l0,1c0.5,-0.9 1.4,-1.2 2.2,-1.2c1.7,0 2.6,1.2 2.6,2.9l0,4.6l-1.4,0l0,-4.3c0,-1 -0.4,-1.8 -1.7,-1.8c-1.1,0 -1.7,0.9 -1.7,2l0,4zm12.9,-1.1c-0.3,0.7 -1.1,1.3 -2.2,1.3c-2.1,0 -3.4,-1.7 -3.4,-3.8c0,-2 1.4,-3.8 3.4,-3.8c1.3,0 2,0.6 2.2,1.2l0,-4.7l1.4,0l0,9.5c0,0.7 0.1,1.2 0.1,1.3l-1.5,0c0,-0.2 -0.1,-0.5 -0.1,-1l0.1,0zm-2.1,0c1.3,0 2.1,-1.1 2.1,-2.6s-0.8,-2.5 -2.1,-2.5s-2.1,1 -2.1,2.5s0.7,2.6 2.1,2.6zm18.5,1.1l-5.7,-8.7l0,8.7l-1.5,0l0,-10.7l2,0l5.3,8.2l0,-8.2l1.5,0l0,10.6l-1.6,0l0,0.1zm11.1,-2.1c-0.4,1.3 -1.6,2.3 -3.2,2.3c-1.9,0 -3.6,-1.4 -3.6,-3.9c0,-2.3 1.6,-3.8 3.4,-3.8c2.2,0 3.5,1.5 3.5,3.8l0,0.4l-5.4,0c0,1.3 1,2.2 2.2,2.2s1.8,-0.6 2,-1.5l1.1,0.5zm-1.5,-2.3c0,-1 -0.7,-1.8 -2,-1.8c-1.2,0 -1.9,0.9 -2,1.8l4,0zm9.5,-2.9l1.9,5.4l1.6,-5.4l1.5,0l-2.3,7.2l-1.5,0l-1.9,-5.5l-1.9,5.5l-1.5,0l-2.4,-7.2l1.5,0l1.6,5.4l1.9,-5.4l1.5,0l0,0zm11.1,1.9c0,-3.6 2.6,-5.5 5.3,-5.5c2.4,0 4.1,1.3 4.7,3.4l-1.4,0.5c-0.4,-1.6 -1.6,-2.5 -3.3,-2.5c-1.9,0 -3.8,1.4 -3.8,4.2s1.8,4.2 3.8,4.2c1.8,0 3,-1.1 3.4,-2.5l1.3,0.5c-0.6,2 -2.2,3.4 -4.7,3.4c-2.8,-0.1 -5.3,-2.1 -5.3,-5.7l0,0zm19,1.7c0,2.2 -1.5,3.8 -3.7,3.8s-3.7,-1.6 -3.7,-3.8s1.5,-3.8 3.7,-3.8s3.7,1.7 3.7,3.8zm-1.4,0c0,-1.7 -1.1,-2.6 -2.2,-2.6s-2.2,0.9 -2.2,2.6c0,1.7 1,2.6 2.2,2.6s2.2,-0.9 2.2,-2.6zm4,3.7l0,-7.2l1.3,0l0,1c0.4,-0.8 1.4,-1.2 2.2,-1.2c0.9,0 1.8,0.4 2.2,1.4c0.6,-1 1.5,-1.4 2.4,-1.4c1.3,0 2.5,0.9 2.5,2.7l0,4.7l-1.4,0l0,-4.5c0,-0.9 -0.5,-1.6 -1.5,-1.6s-1.7,0.8 -1.7,1.8l0,4.4l-1.4,0l0,-4.5c0,-0.9 -0.4,-1.6 -1.5,-1.6c-1,0 -1.7,0.8 -1.7,1.8l0,4.3l-1.4,0l0,-0.1zm13.6,0l0,-7.2l1.3,0l0,1c0.4,-0.8 1.4,-1.2 2.2,-1.2c0.9,0 1.8,0.4 2.2,1.4c0.6,-1 1.5,-1.4 2.4,-1.4c1.3,0 2.5,0.9 2.5,2.7l0,4.7l-1.4,0l0,-4.5c0,-0.9 -0.5,-1.6 -1.5,-1.6s-1.7,0.8 -1.7,1.8l0,4.4l-1.4,0l0,-4.5c0,-0.9 -0.4,-1.6 -1.5,-1.6c-1,0 -1.7,0.8 -1.7,1.8l0,4.3l-1.4,0l0,-0.1zm14.3,-11c0.6,0 1,0.4 1,1s-0.4,1 -1,1s-1,-0.5 -1,-1c0,-0.6 0.4,-1 1,-1zm-0.7,11l0,-7.2l1.4,0l0,7.2l-1.4,0zm6.4,-7.3l1.6,0l0,1.3l-1.6,0l0,3.8c0,0.7 0.3,1 1,1c0.2,0 0.4,0 0.6,-0.1l0,1.2c-0.1,0 -0.5,0.1 -1,0.1c-1.2,0 -2,-0.8 -2,-2.1l0,-4l-1.4,0l0,-1.3l0.4,0c0.8,0 1.1,-0.5 1.1,-1.1l0,-1.2l1.3,0l0,2.4l0,0z" class="st0"/>
  <path stroke-miterlimit="10" stroke-linejoin="round" stroke-linecap="round" stroke-width="4" stroke="#404040" fill="#FFFFFF" d="m315.40002,557.94999l13,0m-11.1,-4.6l9.2,9.2m0,-9.2l-9.2,9.2m4.6,-11.1l0,13" class="st1"/>
  <path stroke-miterlimit="10" stroke-width="4" stroke="#404040" fill="none" d="m429.10002,301.14999c0,-22.6 18.4,-41 41,-41m-41,41c0,22.6 -18.4,41 -41,41l-311.2,0" class="st2"/>
  <circle stroke-miterlimit="10" stroke-linejoin="round" stroke-width="4" stroke="#404040" fill="#B3E3FF" r="21" cy="342.14999" cx="344.70002" class="st3"/>
  <circle stroke-miterlimit="10" stroke-linejoin="round" stroke-width="4" stroke="#404040" fill="#B3E3FF" r="21" cy="342.14999" cx="248.50002" class="st3"/>
  <circle stroke-miterlimit="10" stroke-width="4" stroke="#404040" fill="#FFFFFF" r="21" cy="342.14999" cx="152.20002" class="st4"/>
  <circle stroke-miterlimit="10" stroke-width="4" stroke="#404040" fill="#FFFFFF" r="21" cy="342.14999" cx="55.90002" class="st4"/>
  <path stroke-miterlimit="10" stroke-width="4" stroke="#404040" fill="none" d="m694.10002,260.14999l-224,0" class="st2"/>
  <circle stroke-miterlimit="10" stroke-width="4" stroke="#404040" fill="#4ED1A1" r="21" cy="260.14999" cx="619.10002" class="st5"/>
  <circle stroke-miterlimit="10" stroke-width="4" stroke="#404040" fill="#4ED1A1" r="21" cy="260.14999" cx="523.10002" class="st5"/>
  <circle stroke-miterlimit="10" stroke-width="4" stroke="#404040" fill="#4ED1A1" r="21" cy="260.14999" cx="715.10002" class="st5"/>
  <path stroke-miterlimit="10" stroke-linejoin="round" stroke-linecap="round" stroke-width="4" stroke="#404040" fill="#FFFFFF" d="m529.60002,260.14999l-13,0m11.1,4.6l-9.2,-9.2m0,9.2l9.2,-9.2m-4.6,11.1l0,-13m102.5,6.5l-13,0m11.1,4.6l-9.2,-9.2m0,9.2l9.2,-9.2m-4.6,11.1l0,-13m102.5,6.5l-13,0m11.1,4.6l-9.2,-9.2m0,9.2l9.2,-9.2m-4.6,11.1l0,-13" class="st1"/>
  <path stroke-miterlimit="10" stroke-linejoin="round" stroke-width="4" stroke="#404040" fill="#B3E3FF" d="m294.70002,438.84999l100,0l0,50l-100,0l0,-50z" class="st3"/>
  <path stroke-miterlimit="10" stroke-linejoin="round" stroke-linecap="round" stroke-width="4" stroke="#404040" fill="none" d="m344.70002,392.34999l0,23.5m-10.8,-14.8l10.8,-10.9l10.9,10.9" class="st6"/>
  <path stroke-miterlimit="10" stroke-linejoin="round" stroke-linecap="round" stroke-width="4" stroke="#404040" fill="#4ED1A1" d="m665.10002,119.44999l100,0l0,50l-100,0l0,-50z" class="st7"/>
  <path fill="#404040" d="m688.30002,150.44999l0,-10.6l6.5,0l0,1.4l-5,0l0,3.4l4.5,0l0,1.4l-4.5,0l0,4.5l-1.5,0l0,-0.1zm14.6,-2.1c-0.4,1.3 -1.6,2.3 -3.2,2.3c-1.9,0 -3.6,-1.4 -3.6,-3.9c0,-2.3 1.6,-3.8 3.4,-3.8c2.2,0 3.5,1.5 3.5,3.8l0,0.4l-5.4,0c0,1.3 1,2.2 2.2,2.2s1.8,-0.6 2,-1.5l1.1,0.5zm-1.4,-2.3c0,-1 -0.7,-1.8 -2,-1.8c-1.2,0 -1.9,0.9 -2,1.8l4,0zm5.8,0.3l1.9,-0.3c0.4,-0.1 0.6,-0.3 0.6,-0.5c0,-0.7 -0.5,-1.3 -1.6,-1.3c-1,0 -1.5,0.6 -1.6,1.5l-1.4,-0.3c0.2,-1.4 1.4,-2.3 3,-2.3c2.2,0 3,1.2 3,2.6l0,3.6c0,0.6 0.1,1 0.1,1.2l-1.4,0c0,-0.2 -0.1,-0.5 -0.1,-1c-0.3,0.5 -1,1.2 -2.3,1.2c-1.5,0 -2.4,-1 -2.4,-2.2c0,-1.3 0.9,-2.1 2.2,-2.2l0,0zm2.5,1l0,-0.3l-2.2,0.3c-0.6,0.1 -1.1,0.4 -1.1,1.1c0,0.5 0.4,1 1.2,1c1.1,0 2.1,-0.5 2.1,-2.1zm6.2,-4.1l1.6,0l0,1.3l-1.6,0l0,3.8c0,0.7 0.3,1 1,1c0.2,0 0.4,0 0.6,-0.1l0,1.2c-0.1,0 -0.5,0.1 -1,0.1c-1.2,0 -2,-0.8 -2,-2.1l0,-4l-1.4,0l0,-1.3l0.4,0c0.8,0 1.1,-0.5 1.1,-1.1l0,-1.2l1.3,0l0,2.4l0,0zm6.8,7.4c-1.7,0 -2.7,-1.3 -2.7,-2.9l0,-4.5l1.4,0l0,4.3c0,1 0.4,1.9 1.6,1.9c1.1,0 1.7,-0.8 1.7,-1.8l0,-4.4l1.4,0l0,5.9c0,0.6 0,1.1 0.1,1.3l-1.3,0c0,-0.2 -0.1,-0.6 -0.1,-0.9c-0.4,0.8 -1.3,1.1 -2.1,1.1l0,0zm10.6,-6l-0.6,0c-1.2,0 -2,0.6 -2,2.2l0,3.6l-1.4,0l0,-7.2l1.4,0l0,1.3c0.5,-1.1 1.4,-1.4 2.2,-1.4l0.5,0l0,1.5l-0.1,0zm8.5,3.7c-0.4,1.3 -1.6,2.3 -3.2,2.3c-1.9,0 -3.6,-1.4 -3.6,-3.9c0,-2.3 1.6,-3.8 3.4,-3.8c2.2,0 3.5,1.5 3.5,3.8l0,0.4l-5.4,0c0,1.3 1,2.2 2.2,2.2s1.8,-0.6 2,-1.5l1.1,0.5zm-1.4,-2.3c0,-1 -0.7,-1.8 -2,-1.8c-1.2,0 -1.9,0.9 -2,1.8l4,0z" class="st0"/>
  <path stroke-miterlimit="10" stroke-linejoin="round" stroke-linecap="round" stroke-width="4" stroke="#404040" fill="none" d="m715.10002,215.24999l0,-23.5m10.9,14.8l-10.9,10.9l-10.9,-10.9" class="st6"/>
  <g>
   <path d="m331.00002,469.94999l0,-10l2,0l2.4,7.1c0.2,0.7 0.4,1.2 0.5,1.5c0.1,-0.4 0.3,-0.9 0.5,-1.6l2.4,-7l1.8,0l0,10l-1.3,0l0,-8.4l-2.9,8.4l-1.2,0l-2.9,-8.5l0,8.5l-1.3,0z"/>
   <path d="m348.00002,469.04999c-0.5,0.4 -0.9,0.7 -1.3,0.8c-0.4,0.2 -0.9,0.2 -1.4,0.2c-0.8,0 -1.4,-0.2 -1.8,-0.6s-0.6,-0.9 -0.6,-1.5c0,-0.4 0.1,-0.7 0.2,-1c0.2,-0.3 0.4,-0.5 0.6,-0.7c0.3,-0.2 0.6,-0.3 0.9,-0.4c0.2,-0.1 0.6,-0.1 1.1,-0.2c1,-0.1 1.7,-0.3 2.2,-0.4c0,-0.2 0,-0.3 0,-0.3c0,-0.5 -0.1,-0.9 -0.3,-1.1c-0.3,-0.3 -0.8,-0.4 -1.4,-0.4s-1,0.1 -1.3,0.3c-0.3,0.2 -0.5,0.6 -0.6,1.1l-1.2,-0.2c0.1,-0.5 0.3,-0.9 0.5,-1.2c0.3,-0.3 0.6,-0.6 1.1,-0.7c0.5,-0.2 1,-0.3 1.6,-0.3s1.1,0.1 1.5,0.2s0.7,0.3 0.9,0.6c0.2,0.2 0.3,0.5 0.4,0.8c0,0.2 0.1,0.6 0.1,1.1l0,1.6c0,1.1 0,1.9 0.1,2.2c0.1,0.3 0.2,0.6 0.3,0.9l-1.3,0c-0.2,-0.1 -0.3,-0.4 -0.3,-0.8zm-0.1,-2.7c-0.4,0.2 -1.1,0.3 -2,0.5c-0.5,0.1 -0.9,0.2 -1.1,0.2s-0.4,0.2 -0.5,0.4c-0.1,0.2 -0.2,0.4 -0.2,0.6c0,0.3 0.1,0.6 0.4,0.8c0.2,0.2 0.6,0.3 1.1,0.3s0.9,-0.1 1.3,-0.3c0.4,-0.2 0.6,-0.5 0.8,-0.9c0.1,-0.3 0.2,-0.7 0.2,-1.2l0,-0.4l0,0z"/>
   <path d="m351.80002,461.34999l0,-1.4l1.2,0l0,1.4l-1.2,0zm0,8.6l0,-7.2l1.2,0l0,7.3l-1.2,-0.1l0,0z"/>
   <path d="m355.60002,469.94999l0,-7.2l1.1,0l0,1c0.5,-0.8 1.3,-1.2 2.3,-1.2c0.4,0 0.8,0.1 1.2,0.2c0.4,0.2 0.6,0.4 0.8,0.6s0.3,0.6 0.4,0.9c0,0.2 0.1,0.6 0.1,1.2l0,4.5l-1.2,0l0,-4.4c0,-0.5 0,-0.9 -0.1,-1.1s-0.3,-0.4 -0.5,-0.6c-0.2,-0.1 -0.5,-0.2 -0.9,-0.2c-0.5,0 -1,0.2 -1.4,0.5s-0.6,1 -0.6,1.9l0,4l-1.2,-0.1l0,0z"/>
  </g>
 </g>
</svg>